Wionian 5.0 1
Wigo 4.5 2
Siace 4.0 3
Sidal 4.0 3
Asnar 3.5 4
Nieve 3.0 5
Paigi 3.0 5
Sui 3.0 5
Sunea 3.0 5
Soutu 2.5 6
Naons 2.0 7
Orhoa 2.0 7
Pefoy 2.0 7
Waofi 2.0 7
Gubel 1.5 8
Heiho 1.5 8
Kyuse 1.5 8
Meado 1.5 8
Miell 1.5 8
Soemi 1.5 8
Wekis 1.5 8
Xaaro 1.5 8
Zobi 1.5 8
Conit 1.0 9
Duore 1.0 9
Nagi 1.0 9
Pawer 1.0 9
Tuter 1.0 9
Gix 0.5 10
Romie 0.5 10
Tiaco 0.5 10
Vuhou 0.5 10

Wionian 5.0 1
Wigo 4.5 2
Siace 4.0 3
Sidal 4.0 3
Asnar 3.5 4
Nieve 3.0 5
Paigi 3.0 5
Sui 3.0 5
Sunea 3.0 5
Soutu 2.5 6
Naons 2.0 7
Orhoa 2.0 7
Pefoy 2.0 7
Waofi 2.0 7
Gubel 1.5 8
Heiho 1.5 8
Kyuse 1.5 8
Meado 1.5 8
Miell 1.5 8
Soemi 1.5 8
Wekis 1.5 8
Xaaro 1.5 8
Zobi 1.5 8
Conit 1.0 9
Duore 1.0 9
Nagi 1.0 9
Pawer 1.0 9
Tuter 1.0 9
Gix 0.5 10
Romie 0.5 10
Vuhou 0.5 10
Tiaco 0.5 10